<?xml version="1.0" encoding="utf-8"?>
<COLLADA xmlns="http://www.collada.org/2005/11/COLLADASchema" version="1.4.1" xmlns:xsi="http://www.w3.org/2001/XMLSchema-instance">
  <asset>
    <contributor>
      <author>Blender User</author>
      <authoring_tool>Blender 2.79.0 commit date:2018-03-22, commit time:14:10, hash:f4dc9f9d68b</authoring_tool>
    </contributor>
    <created>2019-06-14T17:01:12</created>
    <modified>2019-06-14T17:01:12</modified>
    <unit name="meter" meter="1"/>
    <up_axis>Z_UP</up_axis>
  </asset>
  <library_cameras>
    <camera id="Camera-camera" name="Camera">
      <optics>
        <technique_common>
          <perspective>
            <xfov sid="xfov">49.13434</xfov>
            <aspect_ratio>1.777778</aspect_ratio>
            <znear sid="znear">0.1</znear>
            <zfar sid="zfar">100</zfar>
          </perspective>
        </technique_common>
      </optics>
      <extra>
        <technique profile="blender">
          <shiftx sid="shiftx" type="float">0</shiftx>
          <shifty sid="shifty" type="float">0</shifty>
          <YF_dofdist sid="YF_dofdist" type="float">0</YF_dofdist>
        </technique>
      </extra>
    </camera>
  </library_cameras>
  <library_lights>
    <light id="Lamp-light" name="Lamp">
      <technique_common>
        <point>
          <color sid="color">1 1 1</color>
          <constant_attenuation>1</constant_attenuation>
          <linear_attenuation>0</linear_attenuation>
          <quadratic_attenuation>0.00111109</quadratic_attenuation>
        </point>
      </technique_common>
      <extra>
        <technique profile="blender">
          <type sid="type" type="int">0</type>
          <flag sid="flag" type="int">0</flag>
          <mode sid="mode" type="int">8192</mode>
          <gamma sid="blender_gamma" type="float">1</gamma>
          <red sid="red" type="float">1</red>
          <green sid="green" type="float">1</green>
          <blue sid="blue" type="float">1</blue>
          <shadow_r sid="blender_shadow_r" type="float">0</shadow_r>
          <shadow_g sid="blender_shadow_g" type="float">0</shadow_g>
          <shadow_b sid="blender_shadow_b" type="float">0</shadow_b>
          <energy sid="blender_energy" type="float">1</energy>
          <dist sid="blender_dist" type="float">29.99998</dist>
          <spotsize sid="spotsize" type="float">75</spotsize>
          <spotblend sid="spotblend" type="float">0.15</spotblend>
          <halo_intensity sid="blnder_halo_intensity" type="float">1</halo_intensity>
          <att1 sid="att1" type="float">0</att1>
          <att2 sid="att2" type="float">1</att2>
          <falloff_type sid="falloff_type" type="int">2</falloff_type>
          <clipsta sid="clipsta" type="float">1.000799</clipsta>
          <clipend sid="clipend" type="float">30.002</clipend>
          <bias sid="bias" type="float">1</bias>
          <soft sid="soft" type="float">3</soft>
          <compressthresh sid="compressthresh" type="float">0.04999995</compressthresh>
          <bufsize sid="bufsize" type="int">2880</bufsize>
          <samp sid="samp" type="int">3</samp>
          <buffers sid="buffers" type="int">1</buffers>
          <filtertype sid="filtertype" type="int">0</filtertype>
          <bufflag sid="bufflag" type="int">0</bufflag>
          <buftype sid="buftype" type="int">2</buftype>
          <ray_samp sid="ray_samp" type="int">1</ray_samp>
          <ray_sampy sid="ray_sampy" type="int">1</ray_sampy>
          <ray_sampz sid="ray_sampz" type="int">1</ray_sampz>
          <ray_samp_type sid="ray_samp_type" type="int">0</ray_samp_type>
          <area_shape sid="area_shape" type="int">1</area_shape>
          <area_size sid="area_size" type="float">0.1</area_size>
          <area_sizey sid="area_sizey" type="float">0.1</area_sizey>
          <area_sizez sid="area_sizez" type="float">1</area_sizez>
          <adapt_thresh sid="adapt_thresh" type="float">0.000999987</adapt_thresh>
          <ray_samp_method sid="ray_samp_method" type="int">1</ray_samp_method>
          <shadhalostep sid="shadhalostep" type="int">0</shadhalostep>
          <sun_effect_type sid="sun_effect_type" type="int">0</sun_effect_type>
          <skyblendtype sid="skyblendtype" type="int">1</skyblendtype>
          <horizon_brightness sid="horizon_brightness" type="float">1</horizon_brightness>
          <spread sid="spread" type="float">1</spread>
          <sun_brightness sid="sun_brightness" type="float">1</sun_brightness>
          <sun_size sid="sun_size" type="float">1</sun_size>
          <backscattered_light sid="backscattered_light" type="float">1</backscattered_light>
          <sun_intensity sid="sun_intensity" type="float">1</sun_intensity>
          <atm_turbidity sid="atm_turbidity" type="float">2</atm_turbidity>
          <atm_extinction_factor sid="atm_extinction_factor" type="float">1</atm_extinction_factor>
          <atm_distance_factor sid="atm_distance_factor" type="float">1</atm_distance_factor>
          <skyblendfac sid="skyblendfac" type="float">1</skyblendfac>
          <sky_exposure sid="sky_exposure" type="float">1</sky_exposure>
          <sky_colorspace sid="sky_colorspace" type="int">0</sky_colorspace>
        </technique>
      </extra>
    </light>
  </library_lights>
  <library_images/>
  <library_effects>
    <effect id="Material-effect">
      <profile_COMMON>
        <technique sid="common">
          <phong>
            <emission>
              <color sid="emission">0 0 0 1</color>
            </emission>
            <ambient>
              <color sid="ambient">0 0 0 1</color>
            </ambient>
            <diffuse>
              <color sid="diffuse">0.64 0.64 0.64 1</color>
            </diffuse>
            <specular>
              <color sid="specular">0.5 0.5 0.5 1</color>
            </specular>
            <shininess>
              <float sid="shininess">50</float>
            </shininess>
            <index_of_refraction>
              <float sid="index_of_refraction">1</float>
            </index_of_refraction>
          </phong>
        </technique>
      </profile_COMMON>
    </effect>
  </library_effects>
  <library_materials>
    <material id="Material-material" name="Material">
      <instance_effect url="#Material-effect"/>
    </material>
  </library_materials>
  <library_geometries>
    <geometry id="Cube-mesh" name="Cube">
      <mesh>
        <source id="Cube-mesh-positions">
          <float_array id="Cube-mesh-positions-array" count="666">-0.7716573 -0.3966048 -0.3717144 -1.019626 -0.5078605 1.762862 -0.7930982 0 1.058059 -0.7005271 -0.4194936 0.8580319 -0.8631711 0.005583167 -0.2856574 -1.019626 0.005583047 1.942113 -0.7943829 -0.3955589 -0.587485 -0.8209301 -0.3277499 -1.069538 -0.4497167 -0.362091 -2.272342 -0.923778 -0.3153152 -2.332155 -0.5291799 -0.2474409 -2.616683 -0.9524036 -0.3481981 -2.582612 -0.4522304 -0.4088083 -4.585463 -0.9049805 -0.4304375 -4.680784 -1.098682 -0.254741 1.347149 -1.457838 -0.3419301 1.815179 -2.099604 -0.178029 1.458099 -2.127536 -0.316605 1.853475 -2.329753 -0.1953749 1.464467 -2.357686 -0.333951 1.859843 -3.351529 -0.1673451 1.514266 -3.4161 -0.255707 1.758615 -3.510957 -0.254014 1.504766 -3.567074 -0.3308075 1.717124 -3.931379 -0.3751397 1.41776 -3.982711 -0.4453849 1.612011 -0.5267235 -0.3755198 1.953378 -0.4826771 -0.3427548 2.174582 -0.5972999 -0.6362057 2.373322 -0.7511314 -0.7908947 3.247982 -0.6581435 -0.6803996 3.760316 -0.7716573 0.3966048 -0.3717144 -1.019626 0.5078605 1.762862 -0.7930982 0 1.058059 -0.7005271 0.4194936 0.8580319 -0.8631711 -0.005583167 -0.2856574 -1.019626 -0.005583047 1.942113 -0.8216763 0.4167102 -0.587485 -0.8990278 0 -0.5401184 -0.8209301 0.4118099 -1.069538 -0.973181 0 -1.0936 -0.4497167 0.362091 -2.272342 -0.923778 0.3153152 -2.332155 -1.099159 0 -2.361318 -0.2711718 0 -2.339412 -0.5291799 0.2474409 -2.616683 -0.9524036 0.3481981 -2.582612 -1.103264 0 -2.544258 -0.3344088 0 -2.601406 -0.4522304 0.2405738 -4.585463 -0.8689936 0.262203 -4.680784 -1.044143 -0.08411723 -4.712227 -0.2712028 -0.08411723 -4.759382 -1.098682 0.254741 1.347149 -1.457838 0.3419301 1.815179 -1.191253 0 1.34468 -1.349365 0 1.868839 -2.099604 0.178029 1.458099 -2.127536 0.316605 1.853475 -2.153332 0 1.448964 -2.085798 0 1.910687 -2.329753 0.1953749 1.464467 -2.357686 0.333951 1.859843 -2.40887 0 1.456035 -2.341336 0 1.917758 -3.351529 0.1673451 1.514266 -3.4161 0.255707 1.758615 -3.465273 0 1.489015 -3.503608 0 1.775248 -3.510957 0.254014 1.504766 -3.567074 0.3308075 1.717124 -3.632117 0 1.488777 -3.643126 0 1.747134 -3.931379 0.3751397 1.41776 -3.982711 0.4453849 1.612011 -4.042208 0 1.403136 -4.052278 0 1.639462 -3.503608 0 1.775248 -0.5267235 0.3755198 1.953378 -0.5267236 0 1.950458 -0.4826771 0.3427548 2.174582 -0.4826772 0 2.172173 -0.5972999 0.4679713 2.373322 -0.6638324 -0.08411723 2.367537 -0.7511314 0.6226602 3.247982 -0.8520826 -0.08411723 3.23859 -0.6581435 0.5121652 3.760316 -0.6581438 -0.08411723 3.914426 0.8778855 0.2160323 1.526144 -0.3343435 -0.4248978 -5.177814 -1.027469 -0.334393 -5.157804 -0.25139 0.001523137 -5.155166 -1.024331 0.001523137 -5.14679 -0.4345751 0.2899959 -5.056901 -0.8513383 0.3070175 -5.064118 -0.4927942 -1.158714 -5.20197 -1.093649 -1.180343 -5.206482 -0.5147644 -1.01253 -4.897959 -0.9315276 -1.034159 -4.937191 0.7716573 -0.3966048 -0.3717144 1.019626 -0.5078605 1.762862 0.7930982 0 1.058059 0 -0.5435479 0.8622373 0.7005271 -0.4194936 0.8580319 0 -0.5773023 1.659632 0.8631711 0.005583167 -0.2856574 1.019626 0.005583047 1.942113 0 -0.4343944 -0.9830178 0.7943829 -0.3955589 -0.587485 0 -0.3745256 -1.275984 0.8209301 -0.3277499 -1.069538 0.4497167 -0.362091 -2.272342 0.923778 -0.3153152 -2.332155 0 -0.5435479 0.8622373 0 -0.5213333 -0.3995888 0.5291799 -0.2474409 -2.616683 0.9524036 -0.3481981 -2.582612 0.4522304 -0.4088083 -4.585463 0.9049805 -0.4304375 -4.680784 1.098682 -0.254741 1.347149 1.457838 -0.3419301 1.815179 2.099604 -0.178029 1.458099 2.127536 -0.316605 1.853475 2.329753 -0.1953749 1.464467 2.357686 -0.333951 1.859843 3.351529 -0.1673451 1.514266 3.4161 -0.255707 1.758615 3.510957 -0.254014 1.504766 3.567074 -0.3308075 1.717124 3.931379 -0.3751397 1.41776 3.982711 -0.4453849 1.612011 0 -0.3638904 1.951656 0.5267235 -0.3755198 1.953378 0 -0.3331648 2.173161 0.4826771 -0.3427548 2.174582 0 -0.7711426 2.382573 0.5972999 -0.6362057 2.373322 0 -0.9359166 3.202604 0.7511314 -0.7908947 3.247982 0 -0.7736568 3.864722 0.6581435 -0.6803996 3.760316 0.7716573 0.3966048 -0.3717144 1.019626 0.5078605 1.762862 0.7930982 0 1.058059 0 0.5435479 0.8622373 0.7005271 0.4194936 0.8580319 0 0.5773023 1.821807 0.8631711 -0.005583167 -0.2856574 1.019626 -0.005583047 1.942113 0 0.7244572 -0.8538237 0.8216763 0.4167102 -0.587485 0.8990278 0 -0.5401184 0 0.4984236 -1.275984 0.8209301 0.4118099 -1.069538 0.973181 0 -1.0936 0 0 -1.279662 0.4497167 0.362091 -2.272342 0.923778 0.3153152 -2.332155 1.099159 0 -2.361318 0.2711718 0 -2.339412 0 0.5435479 0.8622373 0 0.6565603 -0.3995888 0.5291799 0.2474409 -2.616683 0.9524036 0.3481981 -2.582612 1.103264 0 -2.544258 0.3344088 0 -2.601406 0.4522304 0.2405738 -4.585463 0.8689936 0.262203 -4.680784 1.044143 -0.08411723 -4.712227 0.2712028 -0.08411723 -4.759382 1.098682 0.254741 1.347149 1.457838 0.3419301 1.815179 1.191253 0 1.34468 1.349365 0 1.868839 2.099604 0.178029 1.458099 2.127536 0.316605 1.853475 2.153332 0 1.448964 2.085798 0 1.910687 2.329753 0.1953749 1.464467 2.357686 0.333951 1.859843 2.40887 0 1.456035 2.341336 0 1.917758 3.351529 0.1673451 1.514266 3.4161 0.255707 1.758615 3.465273 0 1.489015 3.503608 0 1.775248 3.510957 0.254014 1.504766 3.567074 0.3308075 1.717124 3.632117 0 1.488777 3.643126 0 1.747134 3.931379 0.3751397 1.41776 3.982711 0.4453849 1.612011 4.042208 0 1.403136 4.052278 0 1.639462 3.503608 0 1.775248 0 0.502743 1.754501 0.5267235 0.3755198 1.953378 0.5267236 0 1.950458 0 0.3331648 2.173161 0.4826771 0.3427548 2.174582 0.4826772 0 2.172173 0 0.6029081 2.382573 0.5972999 0.4679713 2.373322 0.6638324 -0.08411723 2.367537 0 0.7243508 3.202604 0.7511314 0.6226602 3.247982 0.8520826 -0.08411723 3.23859 0 0.5187594 3.864722 0.6581435 0.5121652 3.760316 0 -0.08411723 4.068825 0.6581438 -0.08411723 3.914426 -0.8778855 0.2160323 1.526144 0.3343435 -0.4248978 -5.177814 1.027469 -0.334393 -5.157804 0.25139 0.001523137 -5.155166 1.024331 0.001523137 -5.14679 0.4345751 0.2899959 -5.056901 0.8513383 0.3070175 -5.064118 0.4927942 -1.158714 -5.20197 1.093649 -1.180343 -5.206482 0.5147644 -1.01253 -4.897959 0.9315276 -1.034159 -4.937191</float_array>
          <technique_common>
            <accessor source="#Cube-mesh-positions-array" count="222" stride="3">
              <param name="X" type="float"/>
              <param name="Y" type="float"/>
              <param name="Z" type="float"/>
            </accessor>
          </technique_common>
        </source>
        <source id="Cube-mesh-normals">
          <float_array id="Cube-mesh-normals-array" count="1251">0.001449763 -0.8230465 0.5679724 -0.1739802 -0.983868 -0.04164797 -0.9713066 -0.2321077 0.05186158 0.8582484 -0.4638758 -0.2196108 -0.9660995 -0.2576124 0.0169664 -0.1055816 -0.9742755 -0.1990972 0.7774126 -0.6003497 -0.1876431 -0.05390691 -0.9984755 0.01187038 -0.9066607 -0.4160536 0.06975561 0.8824329 -0.4683666 0.04410278 -0.05550622 -0.9510974 -0.3038632 -0.8999063 -0.4071093 0.156303 0.9814926 -0.1913441 0.00772953 0.2374297 -0.9673587 0.08856767 -0.9276716 -0.3733437 -0.006333827 -0.9589085 -0.2656182 0.09970772 -0.107389 -0.08324104 -0.9907263 -0.6543136 -0.694773 -0.2986039 -0.01208937 -0.3295826 0.9440494 -0.5705715 -0.2150219 -0.7925994 -0.1021769 -0.9608848 -0.257411 0.04918402 -0.1838848 0.9817165 -0.1059743 -0.1648702 0.9806056 0.0620644 -0.9432551 -0.3262178 0.04024535 -0.1726458 0.9841614 -0.02762007 -0.05426037 -0.9981448 -0.03075182 -0.1695391 -0.9850437 -0.04207527 -0.9419463 -0.3331168 -0.2011096 -0.1319617 0.9706395 0.001421928 -0.06214296 -0.9980663 -0.9577914 -0.2845523 -0.04081141 -0.2076128 -0.1356133 0.9687652 0.2043752 0.02222663 -0.9786404 -0.01683819 0.007775545 0.9998281 -0.7322325 -0.004785299 -0.6810382 -0.9808313 0.00136882 0.1948544 0.02231353 -0.9895955 0.142137 -0.9704711 -0.1191495 -0.2097362 -0.1064049 -0.5287415 -0.842087 -0.1974564 -0.9587881 -0.2042953 -0.1888697 -0.2787176 0.9416182 -0.9587734 -0.07110852 0.2751311 -0.1703276 -0.9564163 0.2371845 -0.1208469 -0.9818302 -0.1463061 -0.08859366 0.6959257 0.712628 -0.174068 0.984125 -0.03461813 -0.9713066 0.2321078 0.05186158 0.9112967 0.003038287 -0.4117392 -0.9720696 0.1952433 0.1302339 -0.3535811 0.9353498 -0.0100556 0.815608 0.4657605 -0.3432942 -0.1242817 0.9890779 -0.07924062 -0.9377202 0.3437583 0.05011159 0.7845977 0.6193495 0.02850562 -0.05550605 0.9510975 -0.3038632 -0.1648485 -0.4398763 0.8827989 -0.8745168 0.4845981 0.01962363 0.8883273 0.4520716 0.08065956 0.2320266 0.9726929 0.005675971 -0.01081883 0.0551334 -0.9984205 -0.9184108 0.3921184 -0.05258142 -0.9494606 0.2034158 0.2390539 -0.1138899 0.05100065 -0.9921835 -0.6543136 0.694773 -0.2986039 -0.01208937 0.3295827 0.9440493 -0.7419861 -0.1480463 -0.6538647 -0.1021769 0.9608848 -0.257411 0.05588644 0.172073 0.9834976 -0.1059743 0.1648703 0.9806056 0.06206423 0.9432552 -0.3262176 0.02720278 0.1812301 0.9830644 -0.02322936 0.05821692 -0.9980337 -0.05031722 0.06339013 -0.9967195 -0.04207533 0.9419463 -0.3331169 0.4778869 0.8588698 -0.1843009 -0.2011089 0.1319616 0.9706397 0.1025339 0.0799219 -0.9915137 -0.9461081 0.1294819 -0.2968398 0.315233 0.9160481 -0.24796 -0.2076126 0.1356133 0.9687652 0.1940311 -0.03083264 -0.9805108 -0.2664317 0.3176926 0.9099921 -0.7342844 0.004769802 -0.6788253 -0.980788 -0.001516938 0.1950712 -0.08184432 0.9237446 0.3741624 -0.9704711 0.1191495 -0.2097363 0.009858548 0.6132018 -0.7898648 -0.2159839 0.9658626 -0.1430397 -0.2169187 0.3130345 0.9246382 -0.9692667 0.1357167 0.2051905 -0.1169402 0.9662317 0.2296116 -0.3069347 0.9412733 0.140697 -0.3192238 0.9476791 8.2568e-4 -0.1742469 -0.9845495 -0.01733309 0.4778864 -0.8588701 -0.1843007 0.3152324 -0.9160482 -0.2479605 -0.9202797 -0.3548305 0.1648659 -0.0102781 0.3165738 -0.9485122 0.03848832 0.9922938 0.117779 -0.8930904 0.4473686 0.04744571 0.005936324 -0.9010401 0.4336951 -0.9696972 -0.05814003 0.2372916 0.9617083 -0.2133231 0.1720773 0.005446732 0.05702292 -0.998358 -0.001449763 -0.8230464 0.5679723 0.1739802 -0.983868 -0.04164797 0.9713066 -0.2321078 0.05186158 -0.9114305 -0.00404042 -0.4114343 0.9660995 -0.2576124 0.0169664 0.1139759 -0.9846444 -0.1322301 -0.815608 -0.4657605 -0.3432942 0.05390691 -0.9984755 0.01187038 0.9066607 -0.4160537 0.06975561 -0.7807269 -0.6195618 0.08129584 0.05550605 -0.9510975 -0.3038632 0.8745168 -0.4845981 0.01962363 -0.8972629 -0.3988065 0.1894012 -0.2374297 -0.9673588 0.08856767 0.9179245 -0.3966379 -0.009642183 0.9589084 -0.2656183 0.09970772 0.1138899 -0.05100065 -0.9921835 0.6543136 -0.694773 -0.2986039 0.01208937 -0.3295827 0.9440493 0.7419861 0.1480463 -0.6538647 0.1021769 -0.9608848 -0.257411 -0.05588644 -0.172073 0.9834976 0.1059743 -0.1648703 0.9806056 -0.06206423 -0.9432552 -0.3262176 -0.02720278 -0.1812301 0.9830644 0.02322936 -0.05821692 -0.9980337 0.05031722 -0.06339013 -0.9967195 0.04207533 -0.9419463 -0.3331169 0.2011089 -0.1319616 0.9706397 -0.1025339 -0.0799219 -0.9915137 0.9461081 -0.1294819 -0.2968398 0.2076126 -0.1356133 0.9687652 -0.1940311 0.03083264 -0.9805108 0.2664317 -0.3176926 0.9099921 0.7322323 -0.004785358 -0.6810381 0.980788 0.001516938 0.1950712 -0.02231353 -0.9895955 0.1421371 0.9704711 -0.1191495 -0.2097363 -0.005914986 -0.4313545 -0.9021632 0.2134014 -0.9578197 -0.1924609 0.2214926 -0.244014 0.9441389 0.9692667 -0.1357167 0.2051906 0.1703276 -0.9564163 0.2371845 0.1208469 -0.9818302 -0.1463061 0.08859354 0.6959257 0.712628 0.174068 0.984125 -0.03461813 0.9713066 0.2321077 0.05186158 -0.8582484 0.4638758 -0.2196108 0.9378435 0.3470227 -0.004979372 0.2071249 0.8624699 -0.4617847 -0.7774126 0.6003497 -0.1876431 0.1242817 0.9890779 -0.07924062 0.9377201 0.3437582 0.05011159 -0.8749353 0.4841929 0.006752729 0.05550622 0.9510974 -0.3038632 0.1648492 -0.4398763 0.8827988 0.8999063 0.4071093 0.156303 -0.8883272 0.4520717 0.08065956 -0.2320266 0.9726929 0.005675971 0.01081883 0.0551334 -0.9984205 0.9184109 0.3921182 -0.05258142 0.9494606 0.2034158 0.2390539 0.107389 0.08324104 -0.9907263 0.6543136 0.694773 -0.2986039 0.01208937 0.3295826 0.9440494 0.5705715 0.2150219 -0.7925994 0.1021769 0.9608848 -0.257411 -0.04918402 0.1838848 0.9817165 0.1059743 0.1648702 0.9806056 -0.0620644 0.9432551 -0.3262178 -0.04024535 0.1726458 0.9841614 0.02762007 0.05426037 -0.9981448 0.03075182 0.1695391 -0.9850437 0.04207527 0.9419463 -0.3331168 -0.4778864 0.8588701 -0.1843007 0.2011096 0.1319617 0.9706395 -0.001421928 0.06214296 -0.9980663 0.9577914 0.2845523 -0.04081141 -0.3152332 0.9160481 -0.2479599 0.2076128 0.1356133 0.9687652 -0.2043752 -0.02222663 -0.9786404 0.01683819 -0.007775545 0.9998281 0.7342844 0.004769742 -0.6788253 0.9808313 -0.00136882 0.1948544 -0.02008074 0.9895796 0.1425796 0.9704711 0.1191495 -0.2097363 0.1686425 0.7871742 -0.5932256 0.1431987 0.969945 -0.1967259 0.2169187 0.3130345 0.9246382 0.9587734 0.07110852 0.2751311 0.1169402 0.9662317 0.2296116 0.3069347 0.9412733 0.140697 0.1742113 0.9807825 0.08784133 0.1598807 -0.9870942 -0.009124636 -0.4778876 -0.8588691 -0.184302 -0.3152324 -0.9160482 -0.2479603 0.9202798 -0.3548302 0.1648657 0.0102781 0.3165738 -0.9485122 -0.02751922 0.9940659 0.105241 0.8930903 0.4473687 0.04744571 -0.005936443 -0.90104 0.4336953 0.9696971 -0.05814003 0.2372917 -0.9596719 -0.2010898 0.1964509 0.02387303 0.03803908 -0.9989911 0.01975083 -0.8072215 0.5899182 -0.0799871 -0.9889537 -0.124791 -0.9700668 -0.237719 0.04959982 0.9114305 -0.00404042 -0.4114343 -0.9036187 -0.4108736 0.1210631 -0.1139759 -0.9846444 -0.1322301 0.815608 -0.4657605 -0.3432942 -0.09796565 -0.9951882 -0.001820981 -0.8740034 -0.4780949 0.0868529 0.7807269 -0.6195618 0.08129584 0.2380295 -0.9661334 0.09963977 -0.8745168 -0.4845981 0.01962363 0.8972629 -0.3988065 0.1894012 0.03927147 -0.9984267 0.04002165 -0.9179245 -0.3966379 -0.009642183 -0.9584762 -0.248156 0.1405058 -0.1138899 -0.05100065 -0.9921835 -0.3639574 -0.8246892 -0.4329237 -0.2147852 -0.08455795 0.972994 -0.7419861 0.1480463 -0.6538647 -0.05467039 -0.9410904 -0.3337066 0.05588644 -0.172073 0.9834976 -0.1210205 -0.1056181 0.9870151 0.06206434 -0.9432548 -0.3262186 0.02720278 -0.1812301 0.9830644 -0.02322936 -0.05821692 -0.9980337 -0.05031722 -0.06339013 -0.9967195 -0.03594207 -0.9367178 -0.3482355 -0.1957802 -0.1331467 0.9715669 0.1025339 -0.0799219 -0.9915137 -0.9461081 -0.1294819 -0.2968398 -0.2532492 -0.09886819 0.9623357 0.1940311 0.03083264 -0.9805108 -0.2664317 -0.3176926 0.9099921 -0.7895548 -0.1014904 -0.6052298 -0.980788 0.001516938 0.1950712 0.02008014 -0.9903163 0.1373696 -0.9704529 -0.1412126 -0.1956534 0.005914986 -0.4313545 -0.9021632 -0.2134014 -0.9578197 -0.1924609 -0.2214926 -0.244014 0.9441389 -0.9692667 -0.1357167 0.2051906 -0.1727471 -0.9566589 0.2344405 -0.1591331 -0.9871845 0.01197493 0.4043619 -0.6128515 0.6788996 -0.06066876 0.9911358 -0.1181912 -0.9700668 0.237719 0.04959982 0.8582484 0.4638758 -0.2196108 -0.9378435 0.3470227 -0.004979372 -0.2071249 0.8624699 -0.4617847 0.7774126 0.6003497 -0.1876431 -0.08937895 0.9936285 -0.06865692 -0.8740035 0.4780947 0.0868529 0.8749353 0.4841929 0.006752729 0.2380297 0.9661334 0.09963977 -0.06643819 -0.3875739 0.9194415 -0.8999063 0.4071093 0.156303 0.8569467 0.49321 0.1496201 0.06056356 0.9974227 -0.03847247 -0.02453941 0.03298658 -0.9991546 -0.8900473 0.4539402 -0.04188442 -0.9584763 0.248156 0.1405058 -0.107389 0.08324104 -0.9907263 -0.3639573 0.8246893 -0.4329237 -0.2147852 0.08455801 0.972994 -0.5705715 0.2150219 -0.7925994 -0.05467033 0.9410904 -0.3337065 0.04918402 0.1838848 0.9817165 -0.1210205 0.1056181 0.9870151 0.06206446 0.9432548 -0.3262185 0.04024535 0.1726458 0.9841614 -0.02762007 0.05426037 -0.9981448 -0.03075182 0.1695391 -0.9850437 -0.03594207 0.9367178 -0.3482354 0.4778882 0.8588688 -0.1843022 -0.1957802 0.1331467 0.9715669 0.001421928 0.06214296 -0.9980663 -0.9577914 0.2845523 -0.04081141 0.3152324 0.9160482 -0.2479605 -0.2532492 0.09886831 0.9623357 0.2043752 -0.02222663 -0.9786404 -0.01683819 -0.007775545 0.9998281 -0.8310582 0.1058717 -0.546016 -0.9808313 -0.00136882 0.1948544 0.02008074 0.9895796 0.1425796 -0.9704529 0.1412127 -0.1956534 -0.1686425 0.7871742 -0.5932256 -0.1431987 0.969945 -0.1967259 -0.1542294 0.2472352 0.9566025 -0.9587734 0.07110852 0.2751311 -0.05652034 0.953494 0.2960653 -0.3100093 0.9373094 0.1592027 0 0 1 -0.1742113 0.9807825 0.08784133 -0.1598807 -0.9870942 -0.009124636 0.4778876 -0.8588691 -0.184302 0.315233 -0.9160481 -0.24796 -0.9989988 0.01075714 -0.04342675 0.02686065 0.2469289 -0.9686613 0.02751922 0.9940659 0.105241 -0.8720128 0.489187 0.01702702 0.02839612 -0.8855725 0.4636323 -0.8652743 0.03893262 0.4997847 0.9596719 -0.2010898 0.1964509 -0.02387303 0.03803908 -0.9989911 -0.01975095 -0.8072215 0.5899182 0.0799871 -0.9889537 -0.124791 0.9700668 -0.237719 0.04959982 -0.8582484 -0.4638758 -0.2196108 0.9036186 -0.4108736 0.1210631 0.1055816 -0.9742755 -0.1990972 -0.7774126 -0.6003497 -0.1876431 0.09796565 -0.9951882 -0.001820981 0.8740035 -0.4780947 0.0868529 -0.8824329 -0.4683666 0.04410278 -0.2380297 -0.9661334 0.09963977 0.8999063 -0.4071093 0.156303 -0.9814926 -0.1913441 0.00772953 -0.03927147 -0.9984268 0.04002165 0.9276716 -0.3733437 -0.006333827 0.9584763 -0.248156 0.1405058 0.107389 -0.08324104 -0.9907263 0.3639573 -0.8246893 -0.4329237 0.2147852 -0.08455801 0.972994 0.5705715 -0.2150219 -0.7925994 0.05467033 -0.9410904 -0.3337065 -0.04918402 -0.1838848 0.9817165 0.1210205 -0.1056181 0.9870151 -0.06206446 -0.9432548 -0.3262185 -0.04024535 -0.1726458 0.9841614 0.02762007 -0.05426037 -0.9981448 0.03075182 -0.1695391 -0.9850437 0.03594207 -0.9367178 -0.3482354 0.1957802 -0.1331467 0.9715669 -0.001421928 -0.06214296 -0.9980663 0.9577914 -0.2845523 -0.04081141 0.2532492 -0.09886831 0.9623357 -0.2043752 0.02222663 -0.9786404 0.01683819 0.007775545 0.9998281 0.7895544 -0.1014904 -0.6052302 0.9808313 0.00136882 0.1948544 -0.0200802 -0.9903163 0.1373696 0.9704529 -0.1412127 -0.1956534 0.1064049 -0.5287415 -0.842087 0.1974564 -0.9587881 -0.2042953 0.1888697 -0.2787176 0.9416182 0.9587734 -0.07110852 0.2751311 0.1727469 -0.9566589 0.2344405 0.1591331 -0.9871845 0.01197481 -0.4043619 -0.6128515 0.6788996 0.06066876 0.9911358 -0.1181912 0.9700668 0.237719 0.04959982 -0.9112967 0.003038287 -0.4117392 0.9720696 0.1952433 0.1302339 0.3535811 0.9353498 -0.0100556 -0.815608 0.4657605 -0.3432942 0.08937895 0.9936285 -0.06865692 0.8740034 0.4780949 0.0868529 -0.7845977 0.6193495 0.02850562 -0.2380295 0.9661334 0.09963977 0.06643903 -0.3875739 0.9194414 0.8745168 0.4845981 0.01962363 -0.8569469 0.49321 0.14962 -0.06056356 0.9974227 -0.03847247 0.0245397 0.03298658 -0.9991546 0.8900473 0.45394 -0.04188442 0.9584762 0.248156 0.1405058 0.1138899 0.05100065 -0.9921835 0.3639574 0.8246892 -0.4329237 0.2147852 0.08455795 0.972994 0.7419861 -0.1480463 -0.6538647 0.05467039 0.9410904 -0.3337066 -0.05588644 0.172073 0.9834976 0.1210205 0.1056181 0.9870151 -0.06206434 0.9432548 -0.3262186 -0.02720278 0.1812301 0.9830644 0.02322936 0.05821692 -0.9980337 0.05031722 0.06339013 -0.9967195 0.03594207 0.9367178 -0.3482355 -0.4778876 0.8588691 -0.184302 0.1957802 0.1331467 0.9715669 -0.1025339 0.0799219 -0.9915137 0.9461081 0.1294819 -0.2968398 -0.3152324 0.9160482 -0.2479603 0.2532492 0.09886819 0.9623357 -0.1940311 -0.03083264 -0.9805108 0.2664317 0.3176926 0.9099921 0.831058 0.1058719 -0.5460165 0.980788 -0.001516938 0.1950712 0.08184432 0.9237446 0.3741624 0.9704529 0.1412126 -0.1956534 -0.009858548 0.6132018 -0.7898648 0.2159839 0.9658626 -0.1430397 0.1542298 0.2472352 0.9566023 0.9692667 0.1357167 0.2051905 0.05652046 0.953494 0.2960653 0.3100094 0.9373093 0.1592028 0.3192237 0.9476791 8.25676e-4 0.1742469 -0.9845495 -0.01733309 -0.4778864 -0.8588701 -0.1843007 -0.3152332 -0.9160481 -0.2479599 0.9989988 0.01075708 -0.04342675 -0.02686154 0.2469289 -0.9686613 -0.03848832 0.9922938 0.117779 0.8720129 0.4891867 0.01702696 -0.02839601 -0.8855725 0.4636325 0.8652746 0.03893244 0.4997841 -0.9617083 -0.2133231 0.1720773 -0.005446732 0.05702292 -0.998358</float_array>
          <technique_common>
            <accessor source="#Cube-mesh-normals-array" count="417" stride="3">
              <param name="X" type="float"/>
              <param name="Y" type="float"/>
              <param name="Z" type="float"/>
            </accessor>
          </technique_common>
        </source>
        <vertices id="Cube-mesh-vertices">
          <input semantic="POSITION" source="#Cube-mesh-positions"/>
        </vertices>
        <lines count="2">
          <input semantic="VERTEX" source="#Cube-mesh-vertices" offset="0"/>
          <p>77 68 194 185</p>
        </lines>
        <triangles material="Material-material" count="420">
          <input semantic="VERTEX" source="#Cube-mesh-vertices" offset="0"/>
          <input semantic="NORMAL" source="#Cube-mesh-normals" offset="1"/>
          <p>104 0 26 0 1 0 104 1 3 1 102 1 3 2 4 2 0 2 155 3 8 3 44 3 38 4 7 4 6 4 107 5 7 5 109 5 44 6 10 6 48 6 7 7 8 7 109 7 40 8 9 8 7 8 48 9 12 9 52 9 9 10 10 10 8 10 9 11 47 11 11 11 52 12 89 12 91 12 11 13 12 13 10 13 11 14 51 14 13 14 0 15 38 15 6 15 55 16 16 16 59 16 1 17 14 17 3 17 5 18 15 18 1 18 2 19 14 19 55 19 15 20 16 20 14 20 15 21 60 21 17 21 64 22 21 22 19 22 17 23 18 23 16 23 17 24 64 24 19 24 59 25 18 25 63 25 63 26 20 26 67 26 19 27 20 27 18 27 68 28 23 28 21 28 67 29 22 29 71 29 24 30 76 30 75 30 72 31 25 31 23 31 71 32 24 32 75 32 5 33 26 33 79 33 27 34 83 34 81 34 79 35 27 35 81 35 131 36 27 36 26 36 28 37 85 37 83 37 27 38 135 38 28 38 28 39 137 39 29 39 209 40 30 40 139 40 85 41 30 41 87 41 137 42 30 42 29 42 114 43 6 43 107 43 78 44 146 44 32 44 34 45 146 45 144 45 35 46 34 46 31 46 155 47 41 47 152 47 37 48 40 48 38 48 149 49 39 49 37 49 44 50 45 50 41 50 41 51 39 51 152 51 42 52 40 52 39 52 48 53 49 53 45 53 45 54 42 54 41 54 13 55 97 55 12 55 42 56 47 56 43 56 52 57 93 57 49 57 49 58 46 58 45 58 89 59 92 59 91 59 50 60 47 60 46 60 38 61 31 61 37 61 55 62 57 62 53 62 53 63 32 63 34 63 54 64 36 64 32 64 33 65 53 65 34 65 57 66 54 66 53 66 54 67 60 67 56 67 66 68 64 68 62 68 61 69 58 69 57 69 58 70 64 70 60 70 59 71 61 71 57 71 63 72 65 72 61 72 65 73 62 73 61 73 69 74 66 74 65 74 70 75 68 75 66 75 67 76 69 76 65 76 73 77 76 77 74 77 73 78 70 78 69 78 74 79 72 79 70 79 71 80 73 80 69 80 36 81 78 81 32 81 83 82 80 82 81 82 79 83 80 83 78 83 78 84 198 84 195 84 85 85 82 85 83 85 80 86 201 86 198 86 82 87 204 87 201 87 207 88 87 88 209 88 85 89 86 89 84 89 86 90 204 90 84 90 37 91 161 91 149 91 161 92 31 92 34 92 3 93 114 93 113 93 21 94 22 94 20 94 24 95 23 95 25 95 51 96 90 96 13 96 92 97 93 97 91 97 50 98 93 98 94 98 50 99 92 99 51 99 98 100 95 100 97 100 90 101 98 101 13 101 89 102 97 102 95 102 90 103 95 103 96 103 132 104 104 104 100 104 103 105 104 105 102 105 105 106 103 106 99 106 155 107 111 107 109 107 110 108 151 108 108 108 107 109 110 109 108 109 159 110 115 110 111 110 111 111 110 111 109 111 112 112 154 112 110 112 165 113 117 113 115 113 115 114 112 114 111 114 112 115 164 115 158 115 169 116 212 116 117 116 117 117 116 117 115 117 116 118 168 118 164 118 151 119 99 119 108 119 172 120 121 120 119 120 119 121 100 121 103 121 120 122 106 122 100 122 101 123 119 123 103 123 121 124 120 124 119 124 120 125 177 125 173 125 126 126 181 126 124 126 123 127 122 127 121 127 122 128 181 128 177 128 176 129 123 129 121 129 180 130 125 130 123 130 125 131 124 131 123 131 128 132 185 132 126 132 184 133 127 133 125 133 129 134 193 134 130 134 130 135 189 135 128 135 188 136 129 136 127 136 106 137 132 137 100 137 203 138 134 138 200 138 197 139 134 139 132 139 134 140 131 140 132 140 206 141 136 141 203 141 134 142 135 142 133 142 136 143 137 143 135 143 209 144 140 144 210 144 206 145 140 145 138 145 140 146 137 146 138 146 108 147 114 147 107 147 146 148 196 148 142 148 146 149 145 149 144 149 145 150 147 150 141 150 155 151 156 151 159 151 150 152 154 152 153 152 149 153 153 153 152 153 159 154 162 154 165 154 153 155 156 155 152 155 154 156 157 156 153 156 165 157 166 157 169 157 157 158 162 158 156 158 220 159 118 159 117 159 157 160 164 160 163 160 216 161 169 161 166 161 163 162 166 162 162 162 215 163 212 163 214 163 164 164 167 164 163 164 141 165 151 165 150 165 172 166 174 166 176 166 142 167 170 167 145 167 148 168 171 168 142 168 143 169 170 169 172 169 171 170 174 170 170 170 171 171 177 171 175 171 181 172 183 172 179 172 175 173 178 173 174 173 175 174 181 174 179 174 176 175 178 175 180 175 180 176 182 176 184 176 179 177 182 177 178 177 183 178 186 178 182 178 185 179 187 179 183 179 184 180 186 180 188 180 190 181 193 181 192 181 187 182 190 182 186 182 189 183 191 183 187 183 188 184 190 184 192 184 148 185 196 185 197 185 199 186 203 186 200 186 197 187 199 187 200 187 196 188 198 188 199 188 202 189 206 189 203 189 199 190 201 190 202 190 202 191 204 191 205 191 210 192 207 192 209 192 206 193 208 193 210 193 204 194 208 194 205 194 161 195 150 195 149 195 145 196 161 196 160 196 114 197 99 197 103 197 126 198 127 198 128 198 128 199 129 199 130 199 213 200 168 200 118 200 216 201 215 201 214 201 167 202 216 202 166 202 215 203 167 203 168 203 218 204 221 204 220 204 221 205 213 205 118 205 212 206 220 206 117 206 213 207 218 207 212 207 104 208 131 208 26 208 104 209 1 209 3 209 3 210 2 210 4 210 155 211 109 211 8 211 38 212 40 212 7 212 107 213 6 213 7 213 44 214 8 214 10 214 7 215 9 215 8 215 40 216 43 216 9 216 48 217 10 217 12 217 9 218 11 218 10 218 9 219 43 219 47 219 52 220 12 220 89 220 11 221 13 221 12 221 11 222 47 222 51 222 0 223 4 223 38 223 55 224 14 224 16 224 1 225 15 225 14 225 5 226 56 226 15 226 2 227 3 227 14 227 15 228 17 228 16 228 15 229 56 229 60 229 64 230 68 230 21 230 17 231 19 231 18 231 17 232 60 232 64 232 59 233 16 233 18 233 63 234 18 234 20 234 19 235 21 235 20 235 68 236 72 236 23 236 67 237 20 237 22 237 24 238 25 238 76 238 72 239 76 239 25 239 71 240 22 240 24 240 5 241 1 241 26 241 27 242 28 242 83 242 79 243 26 243 27 243 131 244 133 244 27 244 28 245 29 245 85 245 27 246 133 246 135 246 28 247 135 247 137 247 209 248 87 248 30 248 85 249 29 249 30 249 137 250 139 250 30 250 114 251 0 251 6 251 78 252 195 252 146 252 34 253 32 253 146 253 35 254 33 254 34 254 155 255 44 255 41 255 37 256 39 256 40 256 149 257 152 257 39 257 44 258 48 258 45 258 41 259 42 259 39 259 42 260 43 260 40 260 48 261 52 261 49 261 45 262 46 262 42 262 13 263 98 263 97 263 42 264 46 264 47 264 52 265 91 265 93 265 49 266 50 266 46 266 89 267 90 267 92 267 50 268 51 268 47 268 38 269 35 269 31 269 55 270 59 270 57 270 53 271 54 271 32 271 54 272 56 272 36 272 33 273 55 273 53 273 57 274 58 274 54 274 54 275 58 275 60 275 66 276 68 276 64 276 61 277 62 277 58 277 58 278 62 278 64 278 59 279 63 279 61 279 63 280 67 280 65 280 65 281 66 281 62 281 69 282 70 282 66 282 70 283 72 283 68 283 67 284 71 284 69 284 73 285 75 285 76 285 73 286 74 286 70 286 74 287 76 287 72 287 71 288 75 288 73 288 36 289 79 289 78 289 83 290 82 290 80 290 79 291 81 291 80 291 78 292 80 292 198 292 85 293 84 293 82 293 80 294 82 294 201 294 82 295 84 295 204 295 207 296 86 296 87 296 85 297 87 297 86 297 86 298 207 298 204 298 37 299 31 299 161 299 34 300 144 300 160 300 160 301 161 301 34 301 113 300 102 300 3 300 3 302 0 302 114 302 21 303 23 303 22 303 24 304 22 304 23 304 51 305 92 305 90 305 92 306 94 306 93 306 50 307 49 307 93 307 50 308 94 308 92 308 98 309 96 309 95 309 90 310 96 310 98 310 89 311 12 311 97 311 90 312 89 312 95 312 132 313 131 313 104 313 103 314 100 314 104 314 105 315 101 315 103 315 155 316 159 316 111 316 110 317 154 317 151 317 107 318 109 318 110 318 159 319 165 319 115 319 111 320 112 320 110 320 112 321 158 321 154 321 165 322 169 322 117 322 115 323 116 323 112 323 112 324 116 324 164 324 169 325 214 325 212 325 117 326 118 326 116 326 116 327 118 327 168 327 151 328 105 328 99 328 172 329 176 329 121 329 119 330 120 330 100 330 120 331 173 331 106 331 101 332 172 332 119 332 121 333 122 333 120 333 120 334 122 334 177 334 126 335 185 335 181 335 123 336 124 336 122 336 122 337 124 337 181 337 176 338 180 338 123 338 180 339 184 339 125 339 125 340 126 340 124 340 128 341 189 341 185 341 184 342 188 342 127 342 129 343 192 343 193 343 130 344 193 344 189 344 188 345 192 345 129 345 106 346 197 346 132 346 203 347 136 347 134 347 197 348 200 348 134 348 134 349 133 349 131 349 206 350 138 350 136 350 134 351 136 351 135 351 136 352 138 352 137 352 209 353 139 353 140 353 206 354 210 354 140 354 140 355 139 355 137 355 108 356 99 356 114 356 146 357 195 357 196 357 146 358 142 358 145 358 145 359 143 359 147 359 155 360 152 360 156 360 150 361 151 361 154 361 149 362 150 362 153 362 159 363 156 363 162 363 153 364 157 364 156 364 154 365 158 365 157 365 165 366 162 366 166 366 157 367 163 367 162 367 220 368 221 368 118 368 157 369 158 369 164 369 216 370 214 370 169 370 163 371 167 371 166 371 215 372 213 372 212 372 164 373 168 373 167 373 141 374 147 374 151 374 172 375 170 375 174 375 142 376 171 376 170 376 148 377 173 377 171 377 143 378 145 378 170 378 171 379 175 379 174 379 171 380 173 380 177 380 181 381 185 381 183 381 175 382 179 382 178 382 175 383 177 383 181 383 176 384 174 384 178 384 180 385 178 385 182 385 179 386 183 386 182 386 183 387 187 387 186 387 185 388 189 388 187 388 184 389 182 389 186 389 190 390 191 390 193 390 187 391 191 391 190 391 189 392 193 392 191 392 188 393 186 393 190 393 148 394 142 394 196 394 199 395 202 395 203 395 197 396 196 396 199 396 196 397 195 397 198 397 202 398 205 398 206 398 199 399 198 399 201 399 202 400 201 400 204 400 210 401 208 401 207 401 206 402 205 402 208 402 204 403 207 403 208 403 161 404 141 404 150 404 160 300 144 300 145 300 145 405 141 405 161 405 103 300 102 300 113 300 113 406 114 406 103 406 126 407 125 407 127 407 128 408 127 408 129 408 213 409 215 409 168 409 216 410 217 410 215 410 167 411 217 411 216 411 215 412 217 412 167 412 218 413 219 413 221 413 221 414 219 414 213 414 212 415 218 415 220 415 213 416 219 416 218 416</p>
        </triangles>
      </mesh>
    </geometry>
  </library_geometries>
  <library_controllers>
    <controller id="Armature_Cube-skin" name="Armature">
      <skin source="#Cube-mesh">
        <bind_shape_matrix>1 0 0 -0.05190377 0 1 -6.6454e-15 2.21788e-14 0 0 1 5.216329 0 0 0 1</bind_shape_matrix>
        <source id="Armature_Cube-skin-joints">
          <Name_array id="Armature_Cube-skin-joints-array" count="23">spine0 Bone_002 spine1 neck head up_arm_l bottom_arm_l hand_l fingers_l up_arm_r_001 bottom_arm_r_001 hand_r_001 fingers_r_001 up_leg_l_001 bottom_leg_l_001 spine0_005 spine0_009 foot_l_001 toes_l_001 up_leg_r_001 bottom_leg_r_001 foot_r_001 toes_r_001</Name_array>
          <technique_common>
            <accessor source="#Armature_Cube-skin-joints-array" count="23" stride="1">
              <param name="JOINT" type="name"/>
            </accessor>
          </technique_common>
        </source>
        <source id="Armature_Cube-skin-bind_poses">
          <float_array id="Armature_Cube-skin-bind_poses-array" count="368">0.5346128 0 0 0.006744563 0 0 0.5346128 -2.44802 0 -0.5346128 0 0.04014497 0 0 0 1 -0.5346128 0 0 -0.006744801 0 -0.5346128 0 0.04014497 0 0 0.5346128 -3.147731 0 0 0 1 4.83154e-4 0.5317659 -0.05509608 0.2844738 -0.004113078 0.05509817 0.53175 -3.135064 0.5345968 -5.66794e-5 0.004140973 -0.0176329 0 0 0 1 -0.5346128 1.83529e-7 0 -0.01173955 0 -0.1160724 0.5218602 -3.679732 1.95753e-7 0.5218602 0.1160724 -0.9281174 0 0 0 1 -0.002590179 0.491577 0.2101336 -1.629245 -0.006638705 -0.2101495 0.4915324 -3.657858 0.5345653 -2.279e-4 0.007122516 -0.04158097 0 0 0 1 0.0131784 -0.5344501 5.10624e-4 -0.02104198 0.5340494 0.0131883 0.02069747 -0.6719145 -0.02070379 -1.25406e-7 0.5342118 -3.677924 0 0 0 1 -0.009153783 -0.5345336 9.50279e-4 0.02629929 0.5310565 -0.00920242 -0.06087028 -0.7740045 0.0608775 -9.82898e-5 0.5311353 -3.840605 0 0 0 1 0.01161926 -0.5344865 1.26194e-7 -0.03785574 0.5236566 0.01138377 -0.1070753 -1.048626 0.1070502 0.002327263 0.5237802 -3.947341 0 0 0 1 -0.02764427 -0.5338966 0.001011908 0.1020825 0.5124631 -0.02681857 -0.1499109 -0.9004794 0.1497607 -0.006781697 0.5131632 -4.035031 0 0 0 1 0.0131784 0.5344501 -5.10652e-4 0.0213747 -0.5340492 0.0131883 0.02069747 -0.6853896 0.02070379 0 0.5342117 -3.677401 0 0 0 1 -0.009153783 0.5345336 -9.50278e-4 -0.02653026 -0.5310564 -0.00920242 -0.06087028 -0.787404 -0.06087779 -9.8279e-5 0.5311353 -3.842141 0 0 0 1 0.01161926 0.5344865 -1.26194e-7 0.03814893 -0.5236564 0.01138377 -0.1070753 -1.061839 -0.1070501 0.002327263 0.5237802 -3.950042 0 0 0 1 -0.02764427 0.5338966 -0.001011908 -0.1027801 -0.512463 -0.02681863 -0.1499108 -0.9134095 -0.1497608 -0.006781697 0.5131632 -4.038809 0 0 0 1 0.008614361 0.5330876 -0.03942894 0.1222603 0.1032185 -0.04035085 -0.5229997 2.159795 -0.5244833 8.14896e-4 -0.1035742 0.6285516 0 0 0 1 -0.5337937 0.01778215 0.02364361 0.3082821 -0.02164173 0.0566011 -0.5311674 1.385338 -0.0201705 -0.531311 -0.05579447 0.130969 0 0 0 1 -0.5003785 -0.1863989 0.02622181 0.3209272 0.1517983 -0.4436257 -0.2568361 0.1183623 0.111308 -0.2329442 0.4681438 -0.2762303 0 0 0 1 -0.5003785 -0.1863989 0.02622181 0.3209272 0.1517983 -0.4436257 -0.2568361 0.1183623 0.111308 -0.2329442 0.4681438 -0.2762303 0 0 0 1 -0.5322362 -0.04816579 -0.01468312 0.338698 0.04989677 -0.4835126 -0.2225693 0.1687293 0.006772696 -0.2229504 0.4858583 -0.2238776 0 0 0 1 -0.5346128 -6.12387e-7 3.46949e-6 0.3605293 2.65223e-7 -0.5264784 -0.09290748 -0.2364574 3.56672e-6 -0.09290754 0.526478 -0.1649162 0 0 0 1 0.008614361 -0.5330876 0.03942894 -0.1220429 -0.1032185 -0.04035085 -0.5229997 2.157191 0.5244833 8.14896e-4 -0.1035742 0.641785 0 0 0 1 -0.5337937 -0.01778215 -0.02364361 -0.3217507 0.02164173 0.05660116 -0.5311675 1.385884 0.0201705 -0.531311 -0.05579447 0.1314779 0 0 0 1 -0.5322362 0.04816579 0.01468312 -0.3521272 -0.04989677 -0.4835126 -0.2225693 0.1674703 -0.006772696 -0.2229504 0.4858583 -0.2240484 0 0 0 1 -0.5346128 6.12387e-7 -3.46949e-6 -0.3740184 -2.65223e-7 -0.5264784 -0.09290748 -0.2364574 -3.56672e-6 -0.09290754 0.526478 -0.1649163 0 0 0 1</float_array>
          <technique_common>
            <accessor source="#Armature_Cube-skin-bind_poses-array" count="23" stride="16">
              <param name="TRANSFORM" type="float4x4"/>
            </accessor>
          </technique_common>
        </source>
        <source id="Armature_Cube-skin-weights">
          <float_array id="Armature_Cube-skin-weights-array" count="491">0.5632767 0.0105859 0.08176517 0.01665061 0.3277216 0.08378076 0.04238349 0.8738358 0.03803783 0.07856208 0.5541698 0.2887976 0.04043263 0.07195001 0.1473089 0.5206224 0.2270658 0.03305298 0.3893877 0.007366895 0.1459931 0.0674178 0.3898344 0.1304178 0.09515756 0.7744244 0.3599844 0.05369305 0.5863226 0.08416974 0.9158302 1 0.9455099 0.05449008 0.996489 0.003510951 0.6080121 0.3919879 0.005103111 0.9948969 0.01128125 0.9648593 0.02385938 0.0114572 0.1442116 0.8443312 1 0.8670593 0.1329407 0.8409746 0.1590254 0.163754 0.836246 0.1402509 0.8597491 0.7128563 0.2871437 0.1389321 0.8610678 0.1224776 0.8134048 0.06411755 0.05560433 0.8398417 0.104554 0.2246099 0.7753901 0.2182533 0.7817467 2.60489e-4 0.2397441 0.2892459 0.4707495 0.1361178 0.6926026 0.1712796 0.05318826 0.8872269 0.05958479 1 1 0.5527462 0.1109245 0.007041096 0.3292881 0.1446387 0.01858067 0.8367806 0.02820116 0.6554368 0.2786667 0.03769516 0.06112402 0.7128906 0.19983 0.02615535 0.3829501 0.1690886 0.06236797 0.3855932 0.1553879 0.08805847 0.7565535 0.3209964 0.06302648 0.6159771 0.2898873 0.09512168 0.02446198 0.590529 0.07077443 0.9292256 0.05607515 0.9439249 1 1 0.990208 0.00979197 1 1 0.9845751 0.01542484 0.9057927 0.09420728 1 0.9725155 0.02748447 0.8217331 0.178267 0.1685662 0.8314337 0.1780345 0.8219655 0.1835905 0.8164094 1 0.09637773 0.9036223 1 0.8764159 0.1235842 0.860184 0.139816 0.8296593 0.1703407 0.9508084 0.04919153 0.1535369 0.8464631 0.123337 0.8731944 0.003468513 0.08840131 0.9115987 0.05414187 0.9458581 0.03504467 0.9649553 0.01206421 0.9879358 0.06912958 0.9308704 1 0.9360368 0.06396311 0.9024348 0.09756517 1 0.9353749 0.06462502 0.2376233 0.7623767 0.2287806 0.7712193 0.05668187 0.9433181 0.07280361 0.9271964 1 0.4477065 0.1059607 0.1901306 0.2562021 0.3815461 0.02581012 0.2645272 0.3281164 0.1616384 0.2228986 0.5172044 0.09825861 0.1498151 0.06036484 0.6536551 0.1361649 0.04619061 0.3576259 0.5863153 0.009868144 0.05594307 0.06586211 0.8272374 0.05095732 0.08916205 0.9108379 1 0.03778582 0.9622141 1 1 0.9243007 0.07569926 0.9271358 0.07286417 0.05259126 0.9474087 0.07567924 0.9243208 0.2109768 0.7890232 0.2002712 0.7997289 0.02562838 0.9743716 0.07885962 0.9211404 0.07035511 0.9296448 0.1473763 0.8526236 0.5728144 0.01076513 0.08314967 0.3332707 0.07250875 0.03668111 0.8908101 0.0534839 0.1104637 0.7792012 0.05685108 0.6070031 0.3152664 0.05643451 0.02129584 0.09308683 0.190584 0.6735662 0.04276299 0.1612684 0.6070472 0.1671984 0.0644859 0.4175372 0.007899463 0.1565472 0.4180162 0.5781563 0.4218437 0.5260524 0.2369738 0.2369738 0.3599844 0.05369305 0.5863226 0.1542026 0.4228987 0.4228987 0.08416974 0.9158302 1 0.9455099 0.05449008 0.1293165 0.7100867 0.1242607 0.02707886 0.004628539 0.004628539 0.7874487 0.0641393 3.47107e-4 0.07403242 0.07403242 0.996489 0.003510951 0.6080121 0.3919879 0.005103111 0.9948969 0.01128125 0.9648593 0.02385938 0.009458065 0.1190484 0.8714935 1 1 0.9222959 0.07770401 1 1 1 1 1 1 1 1 0.07284599 0.5165047 0.3603111 0.05033814 4.92184e-4 0.452988 0.5465198 0.01309603 0.2416127 0.7129758 0.03231543 0.1642506 0.8357495 0.07652366 0.91478 0.008696258 0.05655831 0.9434417 1 1 1 1 0.5566658 0.111711 0.3316231 0.3917698 0.05032783 0.5579023 0.03909593 0.9086464 0.05225759 1 0.07638877 0.890924 0.03268724 0.8535891 0.09993934 0.01789528 0.02857619 0.4084227 0.1803358 0.4112415 0.638284 0.361716 0.5946066 0.02347266 0.1909604 0.1909604 0.3209964 0.06302648 0.6159771 0.2971563 0.09750694 0.6053369 0.123727 0.4381365 0.4381365 0.07077443 0.9292256 0.05607515 0.9439249 0.05909711 0.4704514 0.4704514 1 1 0.990208 0.00979197 1 0.0827589 0.9129898 0.004251241 0.7592178 0.09538573 0.07269823 0.07269823 1 0.9845751 0.01542484 0.9057927 0.09420728 1 0.9725155 0.02748447 0.8217331 0.178267 0.1685662 0.8314337 0.1780345 0.8219655 0.1508275 0.8491725 1 0.08528888 0.9147111 1 0.9195936 0.08040642 0.9635834 0.03641664 0.9995762 4.23825e-4 1 1 1 1 1 1 1 1 0.997025 0.002974987 0.03164905 0.9683509 1 1 1 1 1.01764e-4 0.9998982 1 1 0.8009549 0.1387836 0.04355365 0.01670777 0.6019195 0.142459 0.2556213 0.5678755 0.03841453 0.3937099 0.07560211 0.8386384 0.08575952 0.1792514 0.2471868 0.5735617 0.1734302 0.06988006 0.7566897 5.06014e-4 0.5190647 0.4804292 0.04665094 0.3611902 0.5921588 0.05894684 0.06939852 0.8716546 0.1404975 0.8595026 0.08916205 0.9108379 1 0.04756557 0.9524344 0.03778582 0.9622141 1 1 0.6666667 0.3333333 0.9243007 0.07569926 0.9271358 0.07286417 0.05259126 0.9474087 0.07567924 0.9243208 0.2109768 0.7890232 0.2002712 0.7997289 0.02562838 0.9743716 0.07885962 0.9211404 0.07035511 0.9296448 0.1473763 0.8526236</float_array>
          <technique_common>
            <accessor source="#Armature_Cube-skin-weights-array" count="491" stride="1">
              <param name="WEIGHT" type="float"/>
            </accessor>
          </technique_common>
        </source>
        <joints>
          <input semantic="JOINT" source="#Armature_Cube-skin-joints"/>
          <input semantic="INV_BIND_MATRIX" source="#Armature_Cube-skin-bind_poses"/>
        </joints>
        <vertex_weights count="222">
          <input semantic="JOINT" source="#Armature_Cube-skin-joints" offset="0"/>
          <input semantic="WEIGHT" source="#Armature_Cube-skin-weights" offset="1"/>
          <vcount>5 3 5 5 5 3 3 2 1 2 2 2 2 3 3 1 2 2 2 2 2 2 3 3 2 2 4 3 3 1 1 4 3 4 4 4 3 3 4 2 2 1 1 2 1 1 2 2 1 2 2 2 2 2 1 2 1 2 2 2 2 2 3 2 2 2 2 2 1 2 2 1 2 2 2 2 2 1 4 4 4 4 4 4 2 1 2 1 1 2 2 2 2 2 2 2 2 2 2 4 3 4 4 4 4 4 2 3 3 3 2 1 2 6 5 2 2 2 3 3 1 1 2 1 1 1 1 1 1 1 1 4 3 4 2 3 2 1 1 1 1 3 3 3 1 3 4 3 2 4 3 3 3 2 2 3 1 1 2 1 3 4 1 2 2 1 2 2 2 2 2 1 2 1 2 2 2 1 1 1 1 1 1 1 1 2 2 1 1 1 1 2 1 1 0 4 3 3 3 3 3 3 3 3 2 2 1 2 2 1 1 2 2 2 2 2 2 2 2 2 2 2 </vcount>
          <v>0 0 1 1 2 2 9 3 19 4 2 5 4 6 9 7 0 8 1 9 2 10 9 11 19 12 0 13 1 14 2 15 9 16 19 17 0 18 1 19 2 20 9 21 19 22 2 23 4 24 9 25 0 26 2 27 19 28 0 29 19 30 19 31 19 32 20 33 19 34 20 35 19 36 20 37 20 38 21 39 20 40 21 41 22 42 1 43 2 44 9 45 9 46 9 47 10 48 9 49 10 50 9 51 10 52 9 53 10 54 10 55 11 56 10 57 11 58 10 59 11 60 12 61 10 62 11 63 12 64 11 65 12 66 11 67 12 68 1 69 2 70 4 71 9 72 2 73 4 74 9 75 2 76 4 77 9 78 4 79 4 80 0 81 2 82 9 83 19 84 2 85 4 86 9 87 0 88 2 89 9 90 19 91 0 92 2 93 9 94 19 95 0 96 2 97 9 98 19 99 2 100 4 101 9 102 0 103 2 104 19 105 0 106 2 107 9 108 19 109 0 110 19 111 0 112 19 113 19 114 19 115 19 116 20 117 19 118 19 119 19 120 20 121 19 122 20 123 19 124 20 125 21 126 20 127 21 128 20 129 21 130 20 131 21 132 2 133 9 134 9 135 2 136 9 137 9 138 9 139 10 140 9 141 10 142 9 143 10 144 9 145 10 146 9 147 10 148 9 149 10 150 11 151 9 152 10 153 9 154 10 155 10 156 11 157 10 158 11 159 10 160 11 161 11 162 11 163 12 164 11 165 12 166 11 167 11 168 12 169 11 170 12 171 11 172 12 173 11 174 12 175 11 176 12 177 11 178 2 179 3 180 4 181 9 182 2 183 3 184 4 185 9 186 2 187 3 188 4 189 9 190 2 191 3 192 4 193 9 194 2 195 3 196 4 197 9 198 2 199 3 200 4 201 9 202 3 203 4 204 4 205 3 206 4 207 4 208 5 209 21 210 22 211 21 212 22 213 20 214 21 215 20 216 21 217 20 218 21 219 20 220 21 221 21 222 22 223 21 224 22 225 21 226 22 227 21 228 22 229 0 230 1 231 2 232 13 233 2 234 4 235 5 236 0 237 1 238 2 239 13 240 1 241 2 242 4 243 9 244 0 245 1 246 2 247 13 248 1 249 2 250 4 251 9 252 0 253 1 254 2 255 13 256 2 257 4 258 0 259 13 260 19 261 0 262 2 263 13 264 0 265 13 266 19 267 0 268 13 269 13 270 13 271 14 272 0 273 1 274 2 275 9 276 13 277 19 278 0 279 1 280 2 281 13 282 19 283 13 284 14 285 13 286 14 287 14 288 17 289 14 290 17 291 18 292 1 293 2 294 5 295 5 296 5 297 5 298 6 299 6 300 6 301 6 302 6 303 7 304 7 305 8 306 8 307 1 308 2 309 4 310 9 311 1 312 2 313 4 314 1 315 2 316 4 317 9 318 2 319 4 320 2 321 4 322 9 323 2 324 4 325 4 326 4 327 4 328 4 329 0 330 2 331 13 332 2 333 4 334 5 335 0 336 2 337 13 338 2 339 0 340 2 341 13 342 2 343 3 344 4 345 9 346 0 347 2 348 13 349 2 350 4 351 0 352 2 353 13 354 19 355 0 356 2 357 13 358 0 359 2 360 13 361 0 362 13 363 19 364 0 365 13 366 0 367 13 368 0 369 13 370 19 371 13 372 13 373 13 374 14 375 13 376 0 377 2 378 9 379 0 380 2 381 13 382 19 383 13 384 13 385 14 386 13 387 14 388 13 389 14 390 17 391 14 392 17 393 14 394 17 395 14 396 17 397 2 398 5 399 5 400 2 401 5 402 5 403 5 404 6 405 5 406 6 407 5 408 6 409 5 410 6 411 6 412 6 413 6 414 6 415 6 416 6 417 6 418 7 419 6 420 7 421 7 422 7 423 7 424 8 425 7 426 8 427 8 428 8 429 2 430 3 431 4 432 9 433 2 434 3 435 4 436 2 437 3 438 4 439 2 440 3 441 4 442 2 443 3 444 4 445 2 446 3 447 4 448 2 449 3 450 4 451 2 452 3 453 4 454 2 455 3 456 4 457 3 458 4 459 3 460 4 461 4 462 3 463 4 464 3 465 4 466 4 467 4 468 5 469 9 470 17 471 18 472 17 473 18 474 14 475 17 476 14 477 17 478 14 479 17 480 14 481 17 482 17 483 18 484 17 485 18 486 17 487 18 488 17 489 18 490</v>
        </vertex_weights>
      </skin>
    </controller>
  </library_controllers>
  <library_visual_scenes>
    <visual_scene id="Scene" name="Scene">
      <node id="Camera" name="Camera" type="NODE">
        <matrix sid="transform">0.6859207 -0.3240135 0.6515582 7.481132 0.7276763 0.3054208 -0.6141704 -6.50764 0 0.8953956 0.4452714 5.343665 0 0 0 1</matrix>
        <instance_camera url="#Camera-camera"/>
      </node>
      <node id="Lamp" name="Lamp" type="NODE">
        <matrix sid="transform">-0.2908646 -0.7711008 0.5663932 4.076245 0.9551712 -0.1998834 0.2183912 1.005454 -0.05518906 0.6045247 0.7946723 5.903862 0 0 0 1</matrix>
        <instance_light url="#Lamp-light"/>
      </node>
      <node id="Armature" name="Armature" type="NODE">
        <matrix sid="transform">1.870513 0 0 -0.01261581 0 1.870513 0 -4.76837e-7 0 0 1.870513 4.483562 0 0 0 1</matrix>
        <node id="Armature_spine0" name="spine0" sid="spine0" type="JOINT">
          <matrix sid="transform">1 0 0 0 0 0 -1 0.04014527 0 1 0 0.05105062 0 0 0 1</matrix>
          <node id="Armature_Bone_002" name="Bone.002" sid="Bone_002" type="JOINT">
            <matrix sid="transform">-1 0 8.74228e-8 0 8.74228e-8 0 1 0.699711 0 1 0 0 0 0 0 1</matrix>
            <extra>
              <technique profile="blender">
                <connect sid="connect" type="bool">1</connect>
                <layer sid="layer" type="string">0</layer>
                <tip_x sid="tip_x" type="float">0</tip_x>
                <tip_y sid="tip_y" type="float">-0.04014521</tip_y>
                <tip_z sid="tip_z" type="float">0</tip_z>
              </technique>
            </extra>
          </node>
          <node id="Armature_spine1" name="spine1" sid="spine1" type="JOINT">
            <matrix sid="transform">9.03745e-4 -0.007693589 0.99997 0 -0.103058 0.9946452 0.007745758 0.699711 -0.9946749 -0.1030619 1.06021e-4 0 0 0 0 1</matrix>
            <node id="Armature_neck" name="neck" sid="neck" type="JOINT">
              <matrix sid="transform">-9.03396e-4 -0.3165584 0.9485726 3.72529e-9 0.007693693 0.9485426 0.3165558 0.6492085 -0.99997 0.007584002 0.001578579 9.31323e-10 0 0 0 1</matrix>
              <node id="Armature_head" name="head" sid="head" type="JOINT">
                <matrix sid="transform">0.00484542 0.01241779 -0.9999111 -4.65661e-10 0.1840442 0.9828305 0.01309753 0.2157207 0.9829059 -0.1840913 0.0024768 -2.98023e-8 0 0 0 1</matrix>
                <extra>
                  <technique profile="blender">
                    <connect sid="connect" type="bool">1</connect>
                    <layer sid="layer" type="string">0</layer>
                    <roll sid="roll" type="float">1.556827</roll>
                    <tip_x sid="tip_x" type="float">-0.01035708</tip_x>
                    <tip_y sid="tip_y" type="float">-0.3278532</tip_y>
                    <tip_z sid="tip_z" type="float">0.7668372</tip_z>
                  </technique>
                </extra>
              </node>
              <extra>
                <technique profile="blender">
                  <connect sid="connect" type="bool">1</connect>
                  <layer sid="layer" type="string">0</layer>
                  <roll sid="roll" type="float">3.141592</roll>
                </technique>
              </extra>
            </node>
            <node id="Armature_up_arm_l" name="up.arm.l" sid="up_arm_l" type="JOINT">
              <matrix sid="transform">-0.9944483 0.02145043 -0.1030159 -0.1009232 -0.1022702 0.03336464 0.9941969 0.5417818 0.02476306 0.9992128 -0.03098555 0.5403111 0 0 0 1</matrix>
              <node id="Armature_bottom_arm_l" name="bottom.arm.l" sid="bottom_arm_l" type="JOINT">
                <matrix sid="transform">0.9991272 0.04158576 0.003939696 3.72529e-9 -0.04170065 0.987468 0.1522108 0.678069 0.00243948 -0.1522423 0.9883401 0 0 0 0 1</matrix>
                <node id="Armature_hand_l" name="hand.l" sid="hand_l" type="JOINT">
                  <matrix sid="transform">0.9992436 -0.03841779 -0.006039646 0 0.03879864 0.9954281 0.08727995 0.6158201 0.002658925 -0.0874483 0.9961655 1.19209e-7 0 0 0 1</matrix>
                  <node id="Armature_fingers_l" name="fingers.l" sid="fingers_l" type="JOINT">
                    <matrix sid="transform">0.9973006 0.07098619 0.01877089 0 -0.07229344 0.9940179 0.08186837 0.1841877 -0.01284708 -0.08300425 0.9964663 0 0 0 0 1</matrix>
                    <extra>
                      <technique profile="blender">
                        <connect sid="connect" type="bool">1</connect>
                        <layer sid="layer" type="string">0</layer>
                        <roll sid="roll" type="float">0.2972915</roll>
                        <tip_x sid="tip_x" type="float">0.1070437</tip_x>
                        <tip_y sid="tip_y" type="float">-0.005601882</tip_y>
                        <tip_z sid="tip_z" type="float">-0.03131353</tip_z>
                      </technique>
                    </extra>
                  </node>
                  <extra>
                    <technique profile="blender">
                      <connect sid="connect" type="bool">1</connect>
                      <layer sid="layer" type="string">0</layer>
                      <roll sid="roll" type="float">0.1973416</roll>
                    </technique>
                  </extra>
                </node>
                <extra>
                  <technique profile="blender">
                    <connect sid="connect" type="bool">1</connect>
                    <layer sid="layer" type="string">0</layer>
                    <roll sid="roll" type="float">0.1143069</roll>
                  </technique>
                </extra>
              </node>
              <extra>
                <technique profile="blender">
                  <layer sid="layer" type="string">0</layer>
                  <roll sid="roll" type="float">-0.03873634</roll>
                </technique>
              </extra>
            </node>
            <node id="Armature_up_arm_r_001" name="up.arm.r.001" sid="up_arm_r_001" type="JOINT">
              <matrix sid="transform">0.9944929 0.01964486 -0.1029459 -0.1018921 0.1018909 0.0487356 0.9936011 0.5500298 0.02453628 -0.9986186 0.04646555 -0.5317277 0 0 0 1</matrix>
              <node id="Armature_bottom_arm_r_001" name="bottom.arm.r.001" sid="bottom_arm_r_001" type="JOINT">
                <matrix sid="transform">0.9991272 -0.04158575 -0.00393975 3.72529e-9 0.04170066 0.987468 0.1522109 0.6780687 -0.00243943 -0.1522424 0.9883402 0 0 0 0 1</matrix>
                <node id="Armature_hand_r_001" name="hand.r.001" sid="hand_r_001" type="JOINT">
                  <matrix sid="transform">0.9992436 0.0384178 0.006039645 -5.58794e-9 -0.03879865 0.9954281 0.08728001 0.6158198 -0.002658922 -0.08744831 0.9961655 0 0 0 0 1</matrix>
                  <node id="Armature_fingers_r_001" name="fingers.r.001" sid="fingers_r_001" type="JOINT">
                    <matrix sid="transform">0.9973007 -0.0709862 -0.0187709 0 0.07229345 0.9940178 0.08186843 0.1841877 0.01284708 -0.08300425 0.9964664 0 0 0 0 1</matrix>
                    <extra>
                      <technique profile="blender">
                        <connect sid="connect" type="bool">1</connect>
                        <layer sid="layer" type="string">0</layer>
                        <roll sid="roll" type="float">-0.2972915</roll>
                        <tip_x sid="tip_x" type="float">-0.1070437</tip_x>
                        <tip_y sid="tip_y" type="float">-0.005601882</tip_y>
                        <tip_z sid="tip_z" type="float">-0.03131353</tip_z>
                      </technique>
                    </extra>
                  </node>
                  <extra>
                    <technique profile="blender">
                      <connect sid="connect" type="bool">1</connect>
                      <layer sid="layer" type="string">0</layer>
                      <roll sid="roll" type="float">-0.1973416</roll>
                    </technique>
                  </extra>
                </node>
                <extra>
                  <technique profile="blender">
                    <connect sid="connect" type="bool">1</connect>
                    <layer sid="layer" type="string">0</layer>
                    <roll sid="roll" type="float">-0.1143069</roll>
                  </technique>
                </extra>
              </node>
              <extra>
                <technique profile="blender">
                  <layer sid="layer" type="string">0</layer>
                  <roll sid="roll" type="float">0.03873634</roll>
                </technique>
              </extra>
            </node>
            <extra>
              <technique profile="blender">
                <connect sid="connect" type="bool">1</connect>
                <layer sid="layer" type="string">0</layer>
                <roll sid="roll" type="float">1.562955</roll>
              </technique>
            </extra>
          </node>
          <node id="Armature_up_leg_l_001" name="up.leg.l.001" sid="up_leg_l_001" type="JOINT">
            <matrix sid="transform">0.01611379 0.1930715 -0.9810523 0.2044213 -0.07375235 -0.9782774 -0.1937368 -0.2043508 -0.9971457 0.07547665 -0.001523793 0 0 0 0 1</matrix>
            <node id="Armature_bottom_leg_l_001" name="bottom.leg.l.001" sid="bottom_leg_l_001" type="JOINT">
              <matrix sid="transform">0.01381598 0.1781957 -0.983898 -7.45058e-9 -0.2385511 0.9561658 0.1698233 0.8864822 0.9710315 0.2323637 0.05571915 1.49012e-8 0 0 0 1</matrix>
              <node id="Armature_spine0_005" name="spine0.005" sid="spine0_005" type="JOINT">
                <matrix sid="transform">0.9251025 -0.3323526 -0.1836496 0 -0.04775712 0.3779705 -0.924585 1.100528 0.3767024 0.8641064 0.3337892 0 0 0 0 1</matrix>
                <extra>
                  <technique profile="blender">
                    <connect sid="connect" type="bool">1</connect>
                    <layer sid="layer" type="string">0</layer>
                    <roll sid="roll" type="float">1.932939</roll>
                    <tip_x sid="tip_x" type="float">0.03624981</tip_x>
                    <tip_y sid="tip_y" type="float">-0.1059389</tip_y>
                    <tip_z sid="tip_z" type="float">-0.06133317</tip_z>
                  </technique>
                </extra>
              </node>
              <node id="Armature_spine0_009" name="spine0.009" sid="spine0_009" type="JOINT">
                <matrix sid="transform">0.9251025 -0.3323526 -0.1836496 0 -0.04775712 0.3779705 -0.924585 1.100528 0.3767024 0.8641064 0.3337892 0 0 0 0 1</matrix>
                <extra>
                  <technique profile="blender">
                    <connect sid="connect" type="bool">1</connect>
                    <layer sid="layer" type="string">0</layer>
                    <roll sid="roll" type="float">1.932939</roll>
                    <tip_x sid="tip_x" type="float">0.03624981</tip_x>
                    <tip_y sid="tip_y" type="float">-0.1059389</tip_y>
                    <tip_z sid="tip_z" type="float">-0.06133317</tip_z>
                  </technique>
                </extra>
              </node>
              <node id="Armature_foot_l_001" name="foot.l.001" sid="foot_l_001" type="JOINT">
                <matrix sid="transform">0.9898176 -0.1416835 0.01367242 0 0.05805064 0.3141041 -0.9476121 1.100528 0.1299665 0.9387568 0.3191306 0 0 0 0 1</matrix>
                <node id="Armature_toes_l_001" name="toes.l.001" sid="toes_l_001" type="JOINT">
                  <matrix sid="transform">0.9955544 0.09349675 -0.01139661 2.98023e-8 -0.09333382 0.9630037 -0.2528096 0.3883958 -0.01266188 0.2527494 0.9674488 0 0 0 0 1</matrix>
                  <extra>
                    <technique profile="blender">
                      <connect sid="connect" type="bool">1</connect>
                      <layer sid="layer" type="string">0</layer>
                      <roll sid="roll" type="float">3.141586</roll>
                      <tip_x sid="tip_x" type="float">0</tip_x>
                      <tip_y sid="tip_y" type="float">-0.2843623</tip_y>
                      <tip_z sid="tip_z" type="float">-0.05018138</tip_z>
                    </technique>
                  </extra>
                </node>
                <extra>
                  <technique profile="blender">
                    <connect sid="connect" type="bool">1</connect>
                    <layer sid="layer" type="string">0</layer>
                    <roll sid="roll" type="float">2.708286</roll>
                  </technique>
                </extra>
              </node>
              <extra>
                <technique profile="blender">
                  <connect sid="connect" type="bool">1</connect>
                  <layer sid="layer" type="string">0</layer>
                  <roll sid="roll" type="float">-3.067416</roll>
                </technique>
              </extra>
            </node>
            <extra>
              <technique profile="blender">
                <layer sid="layer" type="string">0</layer>
                <roll sid="roll" type="float">-1.764123</roll>
              </technique>
            </extra>
          </node>
          <node id="Armature_up_leg_r_001" name="up.leg.r.001" sid="up_leg_r_001" type="JOINT">
            <matrix sid="transform">0.01611379 -0.1930715 0.9810523 -0.2044213 0.07375235 -0.9782774 -0.1937368 -0.2043508 0.9971457 0.07547665 -0.001523793 0 0 0 0 1</matrix>
            <node id="Armature_bottom_leg_r_001" name="bottom.leg.r.001" sid="bottom_leg_r_001" type="JOINT">
              <matrix sid="transform">0.01381598 -0.1781957 0.983898 7.45058e-9 0.2385511 0.9561658 0.1698233 0.8864822 -0.9710315 0.2323637 0.05571915 1.49012e-8 0 0 0 1</matrix>
              <node id="Armature_foot_r_001" name="foot.r.001" sid="foot_r_001" type="JOINT">
                <matrix sid="transform">0.9898176 0.1416835 -0.01367242 0 -0.05805064 0.3141041 -0.9476121 1.100528 -0.1299665 0.9387568 0.3191306 0 0 0 0 1</matrix>
                <node id="Armature_toes_r_001" name="toes.r.001" sid="toes_r_001" type="JOINT">
                  <matrix sid="transform">0.9955544 -0.09349675 0.01139661 -2.98023e-8 0.09333382 0.9630037 -0.2528096 0.3883958 0.01266188 0.2527494 0.9674488 0 0 0 0 1</matrix>
                  <extra>
                    <technique profile="blender">
                      <connect sid="connect" type="bool">1</connect>
                      <layer sid="layer" type="string">0</layer>
                      <roll sid="roll" type="float">-3.141586</roll>
                      <tip_x sid="tip_x" type="float">0</tip_x>
                      <tip_y sid="tip_y" type="float">-0.2843623</tip_y>
                      <tip_z sid="tip_z" type="float">-0.05018138</tip_z>
                    </technique>
                  </extra>
                </node>
                <extra>
                  <technique profile="blender">
                    <connect sid="connect" type="bool">1</connect>
                    <layer sid="layer" type="string">0</layer>
                    <roll sid="roll" type="float">-2.708286</roll>
                  </technique>
                </extra>
              </node>
              <extra>
                <technique profile="blender">
                  <connect sid="connect" type="bool">1</connect>
                  <layer sid="layer" type="string">0</layer>
                  <roll sid="roll" type="float">3.067416</roll>
                </technique>
              </extra>
            </node>
            <extra>
              <technique profile="blender">
                <layer sid="layer" type="string">0</layer>
                <roll sid="roll" type="float">1.764123</roll>
              </technique>
            </extra>
          </node>
          <extra>
            <technique profile="blender">
              <layer sid="layer" type="string">0</layer>
            </technique>
          </extra>
        </node>
      </node>
      <node id="Cube" name="Cube" type="NODE">
        <translate sid="location">0 0 0</translate>
        <rotate sid="rotationZ">0 0 1 0</rotate>
        <rotate sid="rotationY">0 1 0 0</rotate>
        <rotate sid="rotationX">1 0 0 0</rotate>
        <scale sid="scale">1 1 1</scale>
        <instance_controller url="#Armature_Cube-skin">
          <skeleton>#Armature_spine0</skeleton>
          <bind_material>
            <technique_common>
              <instance_material symbol="Material-material" target="#Material-material"/>
            </technique_common>
          </bind_material>
        </instance_controller>
      </node>
    </visual_scene>
  </library_visual_scenes>
  <scene>
    <instance_visual_scene url="#Scene"/>
  </scene>
</COLLADA>